STSCI 5065 - Homework 3
…
hive> LOAD DATA INPATH '/HW3/stockdata/NYSE_dividends.csv'
    > OVERWRITE INTO TABLE stocksdb.stock_dividends;
Loading data to table stocksdb.stock_dividends
chmod: changing permissions of 'hdfs://sandbox.hortonworks.com:8020/HW3/stock_dividends/NYSE_dividends.csv': Permission denied. user=root is not the owner of inode=NYSE_dividends.csv
Table stocksdb.stock_dividends stats: [numFiles=1, numRows=0, totalSize=229907, rawDataSize=0]
OK
Time taken: 1.512 seconds

D

[6 pts] Query the stock_prices table to find out the number of entries of each stock symbol. You are only required to show two screenshots of the first 10 rows and the last 10 rows of your result, including the line starting with Time taken in your output.

prices %>% count(prices$V2)

## # A tibble: 168 x 2
##    `prices$V2`     n
##    <fct>       <int>
##  1 BA          12109
##  2 BAC          5977
##  3 BAF          1830
##  4 BAK          2785
##  5 BAM          6495
##  6 BAP          3539
##  7 BAS          1047
##  8 BAX          7115
##  9 BBD          1891
## 10 BBF          2142
## # ... with 158 more rows
…
